…
`describe_groups()` outputs the same statistics for one variable,
grouped by one or more grouping variables.

``` r
diamonds %>% 
  describe_groups(price, cut, color)
#> # A tibble: 35 x 12
#> # Groups:   cut [5]
#>    cut   color     N Missing     M    SD   Min   Max Range   Mdn   Q25
#>    <ord> <ord> <int>   <int> <dbl> <dbl> <dbl> <dbl> <dbl> <dbl> <dbl>
#>  1 Fair  D       163       0 4291. 3286.   536 16386 15850 3730  2204.
#>  2 Fair  E       224       0 3682. 2977.   337 15584 15247 2956  1590.
#>  3 Fair  F       312       0 3827. 3223.   496 17995 17499 3035  1642.
#>  4 Fair  G       314       0 4239. 3610.   369 18574 18205 3057  1985 
#>  5 Fair  H       303       0 5136. 3886.   659 18565 17906 3816  2458.
#>  6 Fair  I       175       0 4685. 3730.   735 18242 17507 3246  2324 
#>  7 Fair  J       119       0 4976. 4050.   416 18531 18115 3302  2313 
#>  8 Good  D       662       0 3405. 3175.   361 18468 18107 2728.  957.
#>  9 Good  E       933       0 3424. 3331.   327 18236 17909 2420   969 
#> 10 Good  F       909       0 3496. 3202.   357 18686 18329 2647  1214 
#> # ... with 25 more rows, and 1 more variable: Q75 <dbl>
```
…
`cat_xtable` outputs contigency tables for one column variable and one
or more row variables:

``` r
diamonds %>% 
  cat_xtable(cut, color, clarity)
#> # A tibble: 56 x 8
#>    color clarity  Fair  Good `Very Good` Premium Ideal total
#>    <ord> <ord>   <int> <int>       <int>   <int> <int> <dbl>
#>  1 D     I1          4     8           5      12    13    42
#>  2 D     SI2        56   223         314     421   356  1370
#>  3 D     SI1        58   237         494     556   738  2083
#>  4 D     VS2        25   104         309     339   920  1697
#>  5 D     VS1         5    43         175     131   351   705
#>  6 D     VVS2        9    25         141      94   284   553
#>  7 D     VVS1        3    13          52      40   144   252
#>  8 D     IF          3     9          23      10    28    73
#>  9 E     I1          9    23          22      30    18   102
#> 10 E     SI2        78   202         445     519   469  1713
#> # ... with 46 more rows
```
…
### Modify data

`add_index()` adds a rowwise mean index columns of the specified
variables to the dataset. The second argument (first argument if used in
a pipe) should be the name of the index column:

``` r
diamonds %>%
  add_index(meanxyz, x, y, z)
#> # A tibble: 53,940 x 11
#>    carat cut      color clarity depth table price     x     y     z meanxyz
#>    <dbl> <ord>    <ord> <ord>   <dbl> <dbl> <int> <dbl> <dbl> <dbl>   <dbl>
#>  1 0.23  Ideal    E     SI2      61.5    55   326  3.95  3.98  2.43    3.45
#>  2 0.21  Premium  E     SI1      59.8    61   326  3.89  3.84  2.31    3.35
#>  3 0.23  Good     E     VS1      56.9    65   327  4.05  4.07  2.31    3.48
#>  4 0.290 Premium  I     VS2      62.4    58   334  4.2   4.23  2.63    3.69
#>  5 0.31  Good     J     SI2      63.3    58   335  4.34  4.35  2.75    3.81
#>  6 0.24  Very Go~ J     VVS2     62.8    57   336  3.94  3.96  2.48    3.46
#>  7 0.24  Very Go~ I     VVS1     62.3    57   336  3.95  3.98  2.47    3.47
#>  8 0.26  Very Go~ H     SI1      61.9    55   337  4.07  4.11  2.53    3.57
#>  9 0.22  Fair     E     VS2      65.1    61   337  3.87  3.78  2.49    3.38
#> 10 0.23  Very Go~ H     VS1      59.4    61   338  4     4.05  2.39    3.48
#> # ... with 53,930 more rows
```

Set the argument `type = "sum"` to create a sum index instead:

``` r
diamonds %>% 
  add_index(sumxyz, x, y, z, type = "sum")
#> # A tibble: 53,940 x 11
#>    carat cut       color clarity depth table price     x     y     z sumxyz
#>    <dbl> <ord>     <ord> <ord>   <dbl> <dbl> <int> <dbl> <dbl> <dbl>  <dbl>
#>  1 0.23  Ideal     E     SI2      61.5    55   326  3.95  3.98  2.43   10.4
#>  2 0.21  Premium   E     SI1      59.8    61   326  3.89  3.84  2.31   10.0
#>  3 0.23  Good      E     VS1      56.9    65   327  4.05  4.07  2.31   10.4
#>  4 0.290 Premium   I     VS2      62.4    58   334  4.2   4.23  2.63   11.1
#>  5 0.31  Good      J     SI2      63.3    58   335  4.34  4.35  2.75   11.4
#>  6 0.24  Very Good J     VVS2     62.8    57   336  3.94  3.96  2.48   10.4
#>  7 0.24  Very Good I     VVS1     62.3    57   336  3.95  3.98  2.47   10.4
#>  8 0.26  Very Good H     SI1      61.9    55   337  4.07  4.11  2.53   10.7
#>  9 0.22  Fair      E     VS2      65.1    61   337  3.87  3.78  2.49   10.1
#> 10 0.23  Very Good H     VS1      59.4    61   338  4     4.05  2.39   10.4
#> # ... with 53,930 more rows
```

`add_label` adds a text label column of a numeric variable to the
dataset, for example to be used as labels in plots.

``` r
diamonds %>% 
  add_label(labelz, z)
#> # A tibble: 53,940 x 11
#>    carat cut       color clarity depth table price     x     y     z labelz
#>    <dbl> <ord>     <ord> <ord>   <dbl> <dbl> <int> <dbl> <dbl> <dbl> <chr> 
#>  1 0.23  Ideal     E     SI2      61.5    55   326  3.95  3.98  2.43 2.43  
#>  2 0.21  Premium   E     SI1      59.8    61   326  3.89  3.84  2.31 2.31  
#>  3 0.23  Good      E     VS1      56.9    65   327  4.05  4.07  2.31 2.31  
#>  4 0.290 Premium   I     VS2      62.4    58   334  4.2   4.23  2.63 2.63  
#>  5 0.31  Good      J     SI2      63.3    58   335  4.34  4.35  2.75 2.75  
#>  6 0.24  Very Good J     VVS2     62.8    57   336  3.94  3.96  2.48 2.48  
#>  7 0.24  Very Good I     VVS1     62.3    57   336  3.95  3.98  2.47 2.47  
#>  8 0.26  Very Good H     SI1      61.9    55   337  4.07  4.11  2.53 2.53  
#>  9 0.22  Fair      E     VS2      65.1    61   337  3.87  3.78  2.49 2.49  
#> 10 0.23  Very Good H     VS1      59.4    61   338  4     4.05  2.39 2.39  
#> # ... with 53,930 more rows
```

By default, `add_label` rounds to two decimal places. You can change
this by setting the `decimal.places` argument:

``` r
diamonds %>% 
  add_label(labelz, z, decimal.places = 0)
#> # A tibble: 53,940 x 11
#>    carat cut       color clarity depth table price     x     y     z labelz
#>    <dbl> <ord>     <ord> <ord>   <dbl> <dbl> <int> <dbl> <dbl> <dbl> <chr> 
#>  1 0.23  Ideal     E     SI2      61.5    55   326  3.95  3.98  2.43 2     
#>  2 0.21  Premium   E     SI1      59.8    61   326  3.89  3.84  2.31 2     
#>  3 0.23  Good      E     VS1      56.9    65   327  4.05  4.07  2.31 2     
#>  4 0.290 Premium   I     VS2      62.4    58   334  4.2   4.23  2.63 3     
#>  5 0.31  Good      J     SI2      63.3    58   335  4.34  4.35  2.75 3     
#>  6 0.24  Very Good J     VVS2     62.8    57   336  3.94  3.96  2.48 2     
#>  7 0.24  Very Good I     VVS1     62.3    57   336  3.95  3.98  2.47 2     
#>  8 0.26  Very Good H     SI1      61.9    55   337  4.07  4.11  2.53 3     
#>  9 0.22  Fair      E     VS2      65.1    61   337  3.87  3.78  2.49 2     
#> 10 0.23  Very Good H     VS1      59.4    61   338  4     4.05  2.39 2     
#> # ... with 53,930 more rows
```
…
